-------------------------------------------------------------------------------
Test set: net.tncy.validator.constraints.devices.impl.IMEIValidatorTest
-------------------------------------------------------------------------------
Tests run: 4, Failures: 0, Errors: 0, Skipped: 0, Time elapsed: 0.001 s - in net.tncy.validator.constraints.devices.impl.IMEIValidatorTest
