-------------------------------------------------------------------------------
Test set: net.tncy.validator.constraints.bank.impl.BICValidatorTest
-------------------------------------------------------------------------------
Tests run: 3, Failures: 0, Errors: 0, Skipped: 0, Time elapsed: 0.009 s - in net.tncy.validator.constraints.bank.impl.BICValidatorTest
